%YAML 1.1
%TAG !u! tag:unity3d.com,2011:
--- !u!114 &11400000
MonoBehaviour:
  m_ObjectHideFlags: 0
  m_CorrespondingSourceObject: {fileID: 0}
  m_PrefabInstance: {fileID: 0}
  m_PrefabAsset: {fileID: 0}
  m_GameObject: {fileID: 0}
  m_Enabled: 1
  m_EditorHideFlags: 0
  m_Script: {fileID: 11500000, guid: acf24b1a595040839869decbef6baef2, type: 3}
  m_Name: DragInput
  m_EditorClassIdentifier: 
  moveSpeed: 5
  rotationSpeed: 50
  jumpForce: 4
  sensitivity: 10
  animationMultiplier: 1
