%YAML 1.1
%TAG !u! tag:unity3d.com,2011:
--- !u!114 &11400000
MonoBehaviour:
  m_ObjectHideFlags: 0
  m_CorrespondingSourceObject: {fileID: 0}
  m_PrefabInstance: {fileID: 0}
  m_PrefabAsset: {fileID: 0}
  m_GameObject: {fileID: 0}
  m_Enabled: 1
  m_EditorHideFlags: 0
  m_Script: {fileID: 11500000, guid: 4fcb7ca8e17f451c920ad946317436e2, type: 3}
  m_Name: Free Movement
  m_EditorClassIdentifier: 
  characterInput: {fileID: 11400000, guid: 459d9d2034a274c32849403cd9223b7d, type: 2}
  groundLayerMask:
    serializedVersion: 2
    m_Bits: 4294967295
  groundDistance: 0
  movementRange:
    min: 0
    max: 0
    from: 0
  rotationRange:
    min: 360
    max: 360
    from: 0
