%YAML 1.1
%TAG !u! tag:unity3d.com,2011:
--- !u!1001 &271718476763923377
PrefabInstance:
  m_ObjectHideFlags: 0
  serializedVersion: 2
  m_Modification:
    m_TransformParent: {fileID: 0}
    m_Modifications:
    - target: {fileID: 8965575229026345491, guid: d9ebc472a0123f844a20c0aeb67e3367,
        type: 3}
      propertyPath: m_RootOrder
      value: 0
      objectReference: {fileID: 0}
    - target: {fileID: 8965575229026345491, guid: d9ebc472a0123f844a20c0aeb67e3367,
        type: 3}
      propertyPath: m_LocalPosition.x
      value: 0
      objectReference: {fileID: 0}
    - target: {fileID: 8965575229026345491, guid: d9ebc472a0123f844a20c0aeb67e3367,
        type: 3}
      propertyPath: m_LocalPosition.y
      value: 0
      objectReference: {fileID: 0}
    - target: {fileID: 8965575229026345491, guid: d9ebc472a0123f844a20c0aeb67e3367,
        type: 3}
      propertyPath: m_LocalPosition.z
      value: 0
      objectReference: {fileID: 0}
    - target: {fileID: 8965575229026345491, guid: d9ebc472a0123f844a20c0aeb67e3367,
        type: 3}
      propertyPath: m_LocalRotation.w
      value: 1
      objectReference: {fileID: 0}
    - target: {fileID: 8965575229026345491, guid: d9ebc472a0123f844a20c0aeb67e3367,
        type: 3}
      propertyPath: m_LocalRotation.x
      value: -0
      objectReference: {fileID: 0}
    - target: {fileID: 8965575229026345491, guid: d9ebc472a0123f844a20c0aeb67e3367,
        type: 3}
      propertyPath: m_LocalRotation.y
      value: -0
      objectReference: {fileID: 0}
    - target: {fileID: 8965575229026345491, guid: d9ebc472a0123f844a20c0aeb67e3367,
        type: 3}
      propertyPath: m_LocalRotation.z
      value: -0
      objectReference: {fileID: 0}
    - target: {fileID: 8965575229026345491, guid: d9ebc472a0123f844a20c0aeb67e3367,
        type: 3}
      propertyPath: m_LocalEulerAnglesHint.x
      value: 0
      objectReference: {fileID: 0}
    - target: {fileID: 8965575229026345491, guid: d9ebc472a0123f844a20c0aeb67e3367,
        type: 3}
      propertyPath: m_LocalEulerAnglesHint.y
      value: 0
      objectReference: {fileID: 0}
    - target: {fileID: 8965575229026345491, guid: d9ebc472a0123f844a20c0aeb67e3367,
        type: 3}
      propertyPath: m_LocalEulerAnglesHint.z
      value: 0
      objectReference: {fileID: 0}
    - target: {fileID: 8965575229026345492, guid: d9ebc472a0123f844a20c0aeb67e3367,
        type: 3}
      propertyPath: m_Name
      value: RockZonePlaced
      objectReference: {fileID: 0}
    m_RemovedComponents: []
  m_SourcePrefab: {fileID: 100100000, guid: d9ebc472a0123f844a20c0aeb67e3367, type: 3}
