%YAML 1.1
%TAG !u! tag:unity3d.com,2011:
--- !u!1045 &1
EditorBuildSettings:
  m_ObjectHideFlags: 0
  serializedVersion: 2
  m_Scenes:
  - enabled: 1
    path: Assets/Game/Scenes/GameScene.unity
    guid: d3cae817990f9b14c8a186a90c13a3e4
  m_configObjects:
    com.unity.addressableassets: {fileID: 11400000, guid: ab960cc850cb5394cab317c37879f402,
      type: 2}
