%YAML 1.1
%TAG !u! tag:unity3d.com,2011:
--- !u!114 &11400000
MonoBehaviour:
  m_ObjectHideFlags: 0
  m_CorrespondingSourceObject: {fileID: 0}
  m_PrefabInstance: {fileID: 0}
  m_PrefabAsset: {fileID: 0}
  m_GameObject: {fileID: 0}
  m_Enabled: 1
  m_EditorHideFlags: 0
  m_Script: {fileID: 11500000, guid: 606c0229e7ae7594db8921764596d4fd, type: 3}
  m_Name: RockZone
  m_EditorClassIdentifier: 
  itemName: 
  icon: {fileID: 21300000, guid: a94aaf12527b29a4a9f883703a9cad8b, type: 3}
  placeableIndex: 4
  priceValues:
  - currencyName: 1
    price: 10
